&ACCESS RVO
&REL 3
&PARAM DISKPATH = KRC:\R1\Program\pick_from_vacconv
DEFDAT  ACT_StepPickPlyVacConv PUBLIC

DECL BASIS_SUGG_T LAST_BASIS={POINT1[] "attable_middlepoint     ",POINT2[] "attable_middlepoint     ",CP_PARAMS[] "CPDAT2                  ",PTP_PARAMS[] "PDAT0                   ",CONT[] "                        ",CP_VEL[] "2                       ",PTP_VEL[] "100                     ",SYNC_PARAMS[] "SYNCDAT                 ",SPL_NAME[] "S0                      ",A_PARAMS[] "ADAT0                   "}

DECL E6POS XP7 = { X 666666.666, Y 66.6, Z 666.66, A 6.6, B 66.66, C 666.6, S 0, T 0, E1 0, E2 0, E3 0, E4 0, E5 0, E6 0 }
DECL FDAT FP7 = {BASE_NO 0,TOOL_NO 10,IPO_FRAME #BASE,POINT2[] " "}
DECL PDAT PPDAT2 = {APO_MODE #CDIS,APO_DIST 500,VEL 100,ACC 100,GEAR_JERK 100.0,EXAX_IGN 0}
DECL MODULEPARAM_T LAST_TP_PARAMS = {PARAMS[] "Kuka.PointName=P7; Kuka.FrameData.base_no=0; Kuka.FrameData.tool_no=10; Kuka.FrameData.ipo_frame=#BASE; Kuka.isglobalpoint=False; Kuka.MoveDataPtpName=PDAT2; Kuka.MovementDataPdat.apo_mode=#CDIS; Kuka.MovementDataPdat.apo_dist=500; Kuka.MovementData.vel=100; Kuka.MovementData.acc=100; Kuka.MovementData.exax_ign=0; Kuka.VelocityPtp=100; Kuka.BlendingEnabled=True; Kuka.APXEnabled=False; Kuka.CurrentCDSetIndex=0; Kuka.MoveDataName=CPDAT4; Kuka.MovementData.apo_fac=50; Kuka.MovementData.apo_dist=500; Kuka.MovementData.axis_acc=100; Kuka.MovementData.axis_vel=100; Kuka.MovementData.circ_typ=#BASE; Kuka.MovementData.jerk_fac=50; Kuka.MovementData.ori_typ=#VAR; Kuka.VelocityPath=0.1; Kuka.FrameData.point2=                               "}
ENDDAT